3 Conjuntos de dados e importação – Análise de Dados em Biodiversidade: uma Introdução Utilizando o R
…
mean(dados_prob$sementes) #Resultado: NA

[1] NA

mean(dados_prob$sementes, na.rm = TRUE) #Rremove o valor faltante e calcula a média

[1] 147.5172

É possível também remover todas as observações que apresentam dados faltantes. Deve-se fazer isso com cautela, levando em conta a intenção de omitir os dados faltantes, pois ao fazer isso podemos remover informação de outras colunas que não são dados faltantes:

dados_prob_naomit <- na.omit(dados_prob)
dados_prob_naomit

# A tibble: 57 × 3
   especie diametro sementes
   <chr>      <dbl>    <dbl>
 1 citrif      1.58      220
 2 citrif      1.67      276
 3 citrif      1.6       180
 4 citrif      1.43      112
 5 citrif      1.49      172
 6 citrif      1.35      200
 7 citrif      1.42      176
 8 citrif      1.4       196
 9 citrif      1.51      128
10 citrif      1.53      252
# ℹ 47 more rows
…
