8 Modelos lineares e regressão – Análise de Dados em Biodiversidade: uma Introdução Utilizando o R
…
Figura 8.2: gráfico de dispersão mostrando a relação entre as variáveis x e y, incluindo a linha de tendência (vermelho) e resíduos (azul).

Na figura acima, temos a reta que cruza o eixo x no valor 6.7 (\(B_0\)) e tem uma inclinação de 0.69 (\(B_1\)). Os traços em azul mostram a diferença entre os valores observados e os preditos pela reta (\(\epsilon\)), que são chamados de resíduos.

8.2 Regressão linear simples

Utilizaremos a regressão linear para investigar se há uma relação entre o comprimento do ovipositor das vespas e o tamanho das inflorescências de Ficus nas quais elas ovipõem.

No conjunto de dados oviposicao, temos medições de duas variáveis (2 colunas) de valores contínuos: o ovipositor em milímetros e o diâmetro da inflorescência em centímetros.

library(readxl)
ovip <- read_excel("dados_R.xlsx", sheet = "oviposicao")
ovip #visualizar os dados no console

# A tibble: 22 × 2
   tamanho ovipositor
     <dbl>      <dbl>
 1    0.36       1   
 2    0.55       1.02
 3    0.65       1.03
 4    0.61       0.99
 5    0.66       0.99
 6    0.65       1.21
 7    0.75       1.18
 8    0.74       1.21
 9    0.91       1.14
10    0.75       1.11
# ℹ 12 more rows
…
