9 Modelos lineares: ANOVA – Análise de Dados em Biodiversidade: uma Introdução Utilizando o R
…
Observamos um efeito significativo de tratamento sobre movimento. A variável sexo também explicou a variação na movimentação. A interação tratamento:sexo não foi significativa.

9.3 ANCOVA

A ANCOVA é uma extensão da ANOVA, onde incluímos fatores e variáveis contínuas (covariáveis) como variáveis preditoras. Assim, esse delineamento pode ser considerado como um híbrido entre ANOVA e regressão linear (Gotelli & Ellison, 2016).

Para exemplificar, vamos utilizar o conjunto de dados grilos, adaptado de Walker (1962), no qual foi estudado a canção de acasalamento de grilos. Neste conjunto, são apresentados os números de pulsos por segundo emitido por grilos machos das espécies Oecanthus exclamationis e O. niveus a diferentes temperaturas:

grilos <- read_excel("dados_R.xlsx", sheet = "grilos")
grilos

# A tibble: 31 × 3
   Temperatura Pulsos Especie        
         <dbl>  <dbl> <chr>          
 1        20.8   67.9 O_exclamationis
 2        20.8   65.1 O_exclamationis
 3        24     77.3 O_exclamationis
 4        24     78.7 O_exclamationis
 5        24     79.4 O_exclamationis
 6        24     80.4 O_exclamationis
 7        26.2   85.8 O_exclamationis
 8        26.2   86.6 O_exclamationis
 9        26.2   87.5 O_exclamationis
10        26.2   89.1 O_exclamationis
# ℹ 21 more rows
…
