Análise de Dados em Biodiversidade: uma Introdução Utilizando o R - 12 Introdução ao Tidyverse
…
Vamos utilizar a função select() para selecionar variáveis de interesse. Depois utilizaremos a função mutate() para transformar variáveis ou realizar cálculos para calcular a razão entre a coluna do peso e a coluna do comprimento da nadadeira.

pinguins %>%
  select(especie, sexo, peso, nadadeira) %>%
  mutate(peso.nadadeira = peso/nadadeira)

# A tibble: 333 × 5
   especie sexo   peso nadadeira peso.nadadeira
   <chr>   <chr> <dbl>     <dbl>          <dbl>
 1 Adelia  Macho  3750       181           20.7
 2 Adelia  Femea  3800       186           20.4
 3 Adelia  Femea  3250       195           16.7
 4 Adelia  Femea  3450       193           17.9
 5 Adelia  Macho  3650       190           19.2
 6 Adelia  Femea  3625       181           20.0
 7 Adelia  Macho  4675       195           24.0
 8 Adelia  Femea  3200       182           17.6
 9 Adelia  Macho  3800       191           19.9
10 Adelia  Macho  4400       198           22.2
# ℹ 323 more rows
…
12.3.1 Formato longo e curto: pivot_longer() e pivot_wider()

Essas funções podem ser usadas para colocar os dados em formato longo (menos colunas e mais linhas) ou largo (menos linhas e mais colunas).

  pinguins %>%
  select(especie, sexo, peso, nadadeira) %>%
  pivot_longer(peso: nadadeira, names_to = "variável", values_to = "valor")

# A tibble: 666 × 4
   especie sexo  variável  valor
   <chr>   <chr> <chr>     <dbl>
 1 Adelia  Macho peso       3750
 2 Adelia  Macho nadadeira   181
 3 Adelia  Femea peso       3800
 4 Adelia  Femea nadadeira   186
 5 Adelia  Femea peso       3250
 6 Adelia  Femea nadadeira   195
 7 Adelia  Femea peso       3450
 8 Adelia  Femea nadadeira   193
 9 Adelia  Macho peso       3650
10 Adelia  Macho nadadeira   190
# ℹ 656 more rows
…
pinguins_longo <- 
pinguins %>%
  select(especie, sexo, peso, nadadeira) %>%
  mutate(id = 1:nrow(pinguins)) %>%
  pivot_longer(peso:nadadeira, names_to = "variável", values_to = "valor")

head(pinguins_longo) #ver as primeiras linhas

Agora vamos transformar do formato longo para o formato largo:

pinguins_longo %>%
  pivot_wider(names_from = "variável", values_from = "valor")

# A tibble: 333 × 5
   especie sexo     id  peso nadadeira
   <chr>   <chr> <int> <dbl>     <dbl>
 1 Adelia  Macho     1  3750       181
 2 Adelia  Femea     2  3800       186
 3 Adelia  Femea     3  3250       195
 4 Adelia  Femea     4  3450       193
 5 Adelia  Macho     5  3650       190
 6 Adelia  Femea     6  3625       181
 7 Adelia  Macho     7  4675       195
 8 Adelia  Femea     8  3200       182
 9 Adelia  Macho     9  3800       191
10 Adelia  Macho    10  4400       198
# ℹ 323 more rows

12.4 Dados relacionais

Podemos buscar informações de uma tabela em outra tabela, caso tenhamos uma coluna chave que relaciona as duas.

Nos conjuntos de dados, a aba amostras apresenta os dados de amostragem como data e local de coleta, enquanto a planilha id apresenta dados da identificação das espécies coletadas.

library(readxl)
amostras <- read_excel("dados_R.xlsx", sheet = "amostras")
amostras

# A tibble: 29 × 6
   Amostra   Dia   Mês   Ano Pais   Prov_Est 
   <chr>   <dbl> <dbl> <dbl> <chr>  <chr>    
 1 AM001       1     3  2019 Brasil Goiás    
 2 AM002       1     3  2019 Brasil Goiás    
 3 AM003       1     3  2019 Brasil Goiás    
 4 AM004       6     4  2019 Brasil Goiás    
 5 AM005       6     4  2019 Brasil Goiás    
 6 AM006      12     8  2019 Brasil Goiás    
 7 AM007      12     8  2019 Brasil Goiás    
 8 AM008      12     8  2019 Brasil Goiás    
 9 AM009      12     8  2019 Brasil Goiás    
10 AM010      12     8  2019 Brasil São Paulo
# ℹ 19 more rows

id <- read_excel("dados_R.xlsx", sheet = "id")
id

# A tibble: 24 × 3
   Amostra Familia    Especie               
   <chr>   <chr>      <chr>                 
 1 AM001   Eupelmidae Lutnes testaceus      
 2 AM001   Mymaridae  Gonatocerus litoralis 
 3 AM001   Eupelmidae Merostenus melinus    
 4 AM005   Mymaridae  Neomymar mirabilicorne
 5 AM005   Mymaridae  Neomymar mirabilicorne
 6 AM005   Mymaridae  Neomymar soror        
 7 AM005   Mymaridae  Neomymar soror        
 8 AM010   Encyrtidae Copidosoma floridanum 
 9 AM024   Eupelmidae Lutnes testaceus      
10 AM024   Mymaridae  Gonatocerus litoralis 
# ℹ 14 more rows
…
